," CDB Jour"," CDB Nuit"," OPL Jour"," OPL Nuit"," DC Jour"," DC Nuit"," INST Jour"," INST Nuit","Simu","IFR","arri. IFR","Total"
"A340",0:00,0:00,914:04,803:53,0:00,0:00,0:00,0:00,61:00,1746:57,227,1717:57
"A341",0:00,0:00,845:38,752:57,0:00,0:00,0:00,0:00,47:30,1637:23,229,1598:35
"A342",118:42,34:41,0:00,0:00,0:00,0:00,0:00,0:00,0:00,153:23,94,153:23
"A318",,,,,,,,,,,,
"A319",,,,,,,,,,,,
"A320",,,,,,,,,,,,
"A321",,,,,,,,,,,,
"AJET",657:50,51:40,75:05,4:25,64:15,7:00,613:05,0:00,60:15,19:35,146,860:15
"B737",0:00,0:00,0:00,0:00,0:00,0:00,0:00,0:00,60:00,0:00,0,0:00
"BE55",0:00,0:00,0:00,0:00,42:45,0:00,0:00,0:00,30:00,37:30,62,42:45
"CM170",1043:15,65:05,187:20,7:40,96:55,7:40,884:30,0:00,62:30,115:55,181,1407:55
"M20",1:30,0:00,31:15,2:25,0:00,0:00,0:00,0:00,0:00,0:00,4,35:10
"multimoteur",1821:17,151:26,2053:22,1571:20,203:55,14:40,1497:35,0:00,321:15,3710:43,943,5816:00
"C152",47:20,0:00,0:00,0:00,0:00,0:00,47:00,0:00,0:00,0:00,0,47:20
"C172",23:25,0:00,0:00,0:00,0:00,0:00,18:00,0:00,0:00,0:00,0,23:25
"C177",0:40,0:00,0:00,0:00,3:45,0:00,0:00,0:00,0:00,0:00,0,4:25
"CAP10",4:45,0:00,0:00,0:00,44:20,0:00,0:55,0:00,0:00,0:00,0,49:05
"CO02",10:05,0:00,0:00,0:00,0:30,0:00,10:05,0:00,0:00,0:00,0,10:35
"divers",21:50,0:00,0:00,0:00,1:40,0:00,20:35,0:00,0:00,0:00,0,23:30
"DR360",4:35,0:00,0:00,0:00,0:20,0:00,0:00,0:00,0:00,0:00,0,4:55
"DR400",190:30,0:00,0:00,0:00,2:25,0:00,161:50,0:00,0:00,0:00,0,192:55
"F1CR",917:30,65:10,0:00,0:00,31:35,2:00,0:00,0:00,82:00,26:00,167,1016:15
"F1CT",747:55,38:10,0:00,0:00,4:30,0:00,0:00,0:00,23:00,2:30,79,790:35
"HR200",51:30,0:00,0:00,0:00,48:10,0:00,10:30,0:00,,0:00,0,99:40
"J3",27:25,0:00,0:00,0:00,0:40,0:00,25:15,0:00,0:00,0:00,0,28:05
"M201",1:00,0:00,0:00,0:00,0:00,0:00,1:00,0:00,0:00,0:00,0,1:00
"M893",1:55,0:00,0:00,0:00,0:00,0:00,1:55,0:00,0:00,0:00,0,1:55
"MS880",259:00,0:00,0:00,0:00,20:35,0:00,201:10,0:00,0:00,0:00,0,279:35
"R1180",0:00,0:00,0:00,0:00,6:20,0:00,0:00,0:00,0:00,0:00,0,6:20
"R2100",1:05,0:00,0:00,0:00,0:00,0:00,0:00,0:00,0:00,0:00,0,1:05
"TB10",7:35,0:00,0:00,0:00,2:25,0:00,0:00,0:00,0:00,0:00,0,10:00
"monomoteur",2318:05,103:20,0:00,0:00,167:15,2:00,498:15,0:00,105:00,28:30,246,2590:40
,,,,,,,,,,,,
"Total",4139:22,254:46,2053:22,1571:20,371:10,16:40,1995:50,0:00,426:15,3739:13,1189,8406:40
,,,,,,,,,,,,
,,,,,,,,,,,,
,,,,,,,,,,,,
,"Total Jour","Total nuit","Total général","Total simu","Total DC","Total CBD","Total OPL","total Inst","total IFR","RVT","Arr. IFR",
,6563:54,1842:46,8406:40,426:15,387:50,4394:08,3624:42,1995:50,3739:13,175,1189,
